<?xml version="1.0" encoding="UTF-8" standalone="no"?>
<!-- Created with Inkscape (http://www.inkscape.org/) -->

<svg
   width="210mm"
   height="297mm"
   viewBox="0 0 210 297"
   version="1.1"
   id="svg21"
   xml:space="preserve"
   inkscape:version="1.2.1 (9c6d41e, 2022-07-14)"
   sodipodi:docname="coinboard-logo2.svg"
   xmlns:inkscape="http://www.inkscape.org/namespaces/inkscape"
   xmlns:sodipodi="http://sodipodi.sourceforge.net/DTD/sodipodi-0.dtd"
   xmlns="http://www.w3.org/2000/svg"
   xmlns:svg="http://www.w3.org/2000/svg"><sodipodi:namedview
     id="namedview23"
     pagecolor="#ffffff"
     bordercolor="#000000"
     borderopacity="0.25"
     inkscape:showpageshadow="2"
     inkscape:pageopacity="0.0"
     inkscape:pagecheckerboard="0"
     inkscape:deskcolor="#d1d1d1"
     inkscape:document-units="mm"
     showgrid="false"
     inkscape:zoom="2.0556551"
     inkscape:cx="342.22666"
     inkscape:cy="285.06727"
     inkscape:window-width="1280"
     inkscape:window-height="800"
     inkscape:window-x="0"
     inkscape:window-y="0"
     inkscape:window-maximized="0"
     inkscape:current-layer="g1482"
     showguides="true"><sodipodi:guide
       position="59.165947,236.50123"
       orientation="0,-1"
       id="guide2243"
       inkscape:locked="false" /><sodipodi:guide
       position="98.976922,215.81343"
       orientation="0,-1"
       id="guide2245"
       inkscape:locked="false" /></sodipodi:namedview><defs
     id="defs18" /><g
     inkscape:label="Layer 1"
     inkscape:groupmode="layer"
     id="layer1"><g
       transform="matrix(0.00155149,0,0,-0.00211421,70.084621,71.129834)"
       id="g1482"
       inkscape:label="logo and text"><g
         id="g2227"
         inkscape:label="logo"><text
           xml:space="preserve"
           style="font-style:normal;font-variant:normal;font-weight:normal;font-stretch:normal;font-size:13789.8px;font-family:'Hiragino Sans';-inkscape-font-specification:'Hiragino Sans';display:inline;fill:#000000;stroke-width:258.561"
           x="-852.53174"
           y="5275.4653"
           id="text1795"
           transform="matrix(1.1115573,0,0,-0.8996379,5.9082988e-4,-2.6605682e-4)"
           inkscape:label="I"><tspan
             sodipodi:role="line"
             id="tspan1793"
             style="stroke-width:258.561"
             x="0"
             y="0">N</tspan></text><ellipse
           style="fill:#ffffff;stroke-width:147.805"
           id="path2077"
           cx="5013.1338"
           cy="-137.73116"
           transform="matrix(1.0000001,0,0,-0.99999938,5.9082988e-4,-2.6605682e-4)"
           rx="4813.2397"
           ry="4853.6099"
           inkscape:label="background" /><path
           d="M 4195.6,5005.3 C 3602.1,4976.6 3159.9,4867.5 2652.6,4622.4 1259,3950.4 275,2365.4 116.1,535.2 18.5,-600 368.8,-1919 1035,-2924 c 706.4,-1062.5 1700,-1686.5 2892.6,-1812.9 99.5,-11.5 522.6,-24.9 938,-32.5 706.4,-11.5 775.3,-9.6 1062.5,28.7 488.2,67 758.1,130.2 1158.2,273.8 1600.4,578.1 2626.5,2100 2796.9,4150.3 107.2,1296 -304.4,2726.1 -1077.8,3756 -670,888.3 -1571.7,1416.6 -2647.6,1546.8 -218.2,26.7 -1544.8,40.1 -1962.2,19.1 z M 6066,4632 c 786.8,-111 1468.3,-449.9 2061.8,-1024.2 1600.4,-1544.9 1872.2,-4261.4 622.1,-6194.9 -591.5,-917 -1426.2,-1525.8 -2377.6,-1738.3 -754.3,-170.4 -1521.9,-80.4 -2232.2,258.4 -842.3,402 -1520,1129.5 -1956.5,2094.3 -758.1,1671.2 -551.3,3671.7 520.7,5094.1 641.3,850 1579.3,1409 2544.2,1518.1 229.8,26.9 606.9,23.1 817.5,-7.5 z m -1969.9,-57.5 c -5.7,-5.7 -80.4,-45.9 -168.5,-88.1 -155.1,-74.7 -160.8,-74.7 -304.4,-63.2 -237.4,21.1 -239.3,34.5 -19.1,82.3 109.1,23 264.2,47.9 342.7,57.4 78.5,9.5 147.4,17.2 151.2,19.1 3.8,0.2 3.8,-1.7 -1.9,-7.5 z M 3318.9,4297 c 103.4,-9.6 191.4,-19.1 197.2,-19.1 7.7,0 -53.6,-44 -132.1,-97.6 l -147.4,-97.6 -281.4,30.6 c -155.1,17.2 -289.1,30.6 -300.6,32.5 -9.6,0 67,44 172.3,93.8 137.8,68.9 206.7,91.9 248.9,86.2 32.5,-5.9 141.6,-17.4 243.1,-28.8 z m -467.1,-327.4 c 107.2,-13.4 193.4,-28.7 191.4,-34.5 -3.8,-5.8 -55.5,-57.4 -114.9,-114.9 l -109.1,-101.5 -350.3,40.2 c -191.4,23 -350.3,44 -352.2,45.9 -3.8,3.8 61.3,51.7 141.7,107.2 l 147.4,101.5 124.4,-11.5 c 68.9,-5.6 212.4,-20.9 321.6,-32.4 z m -478.6,-354.2 c 158.9,-19.1 291,-38.3 291,-44 -1.9,-5.8 -45.9,-61.3 -101.5,-122.5 l -99.6,-111 -335,40.2 c -480.5,57.4 -448,38.3 -314,174.2 107.2,111 116.8,114.9 189.5,105.3 42.2,-3.9 208.8,-24.9 369.6,-42.2 z m -388.6,-373.3 c 189.5,-23 348.4,-44 352.2,-47.9 3.8,-3.8 -24.9,-55.5 -65.1,-112.9 -55.5,-82.3 -82.3,-105.3 -122.5,-105.3 -67,0 -750.4,90 -760,101.5 -5.7,3.8 32.5,55.5 82.3,114.9 67,80.4 99.5,105.3 128.3,99.6 22.9,-3.9 195.2,-26.9 384.8,-49.9 z m -260.4,-371.3 c 193.3,-26.8 356.1,-49.8 359.9,-55.5 3.8,-3.8 -28.7,-72.8 -72.7,-153.2 -67,-118.7 -88.1,-143.6 -120.6,-135.9 -23,5.7 -212.5,32.5 -423.1,59.3 -210.6,28.7 -386.7,53.6 -388.6,55.5 -3.8,3.8 36.4,70.8 88.1,149.3 86.1,126.3 101.5,139.7 151.2,134 28.7,-3.8 212.4,-28.7 405.8,-53.5 z M 1483,2428.5 c 208.7,-28.7 375.2,-57.4 373.3,-65.1 -111,-258.4 -139.7,-306.3 -180,-306.3 -57.4,0 -836.6,112.9 -846.1,122.5 -3.8,5.8 28.7,78.5 74.7,164.6 80.4,149.3 86.1,155.1 141.7,145.5 30.5,-5.6 227.7,-32.4 436.4,-61.2 z M 1641.9,1904 c 34.5,0 -59.3,-275.7 -93.8,-283.3 -28.7,-5.8 -794.5,103.4 -861.5,122.5 -38.3,11.5 -34.5,34.5 34.5,191.4 l 44,97.6 426.9,-63.2 c 235.5,-36.3 438.4,-65 449.9,-65 z M 1081,1528.8 c 245,-38.3 446,-68.9 448,-70.8 1.9,-1.9 -11.5,-68.9 -30.6,-147.4 -26.8,-122.5 -38.3,-143.6 -68.9,-139.7 -130.2,17.2 -899.8,141.7 -905.5,147.4 -13.4,15.3 74.7,279.5 93.8,279.5 11.4,-0.1 220.1,-30.7 463.2,-69 z m 354.1,-515 c 5.8,-5.7 -32.5,-283.3 -42.1,-291 -3.8,-3.8 -222.1,28.7 -486.2,72.7 -459.4,76.6 -480.5,82.3 -472.9,120.6 3.8,23 17.2,88.1 28.7,147.4 l 21.1,105.3 472.8,-76.6 c 260.4,-40.1 474.8,-76.5 478.6,-78.4 z M 1377.7,564 c 1.9,0 3.8,-68.9 3.8,-153.2 0,-132.1 -3.8,-153.1 -32.5,-153.1 -19.1,0 -243.1,36.4 -497.7,80.4 l -465.2,80.4 v 68.9 c 0,40.2 5.7,109.1 11.5,157 l 11.5,86.2 482.4,-82.3 C 1155.6,602.2 1373.9,564 1377.7,564 Z M 1132.7,135.1 1372,93 l 5.7,-128.3 c 3.8,-84.2 -1.9,-128.3 -15.3,-128.3 -11.5,0 -233.6,38.3 -493.9,86.1 -258.5,48 -478.6,86.3 -486.3,86.3 -7.7,0 -15.3,59.3 -15.3,132.1 v 130.2 l 264.2,-45.9 c 143.6,-26.9 369.5,-67.1 501.6,-90.1 z M 891.5,-232.4 c 264.2,-49.8 486.2,-93.8 493.9,-101.5 7.7,-5.7 19.1,-63.2 24.9,-128.3 l 13.4,-116.8 -513.1,95.7 c -283.3,53.6 -516.9,97.6 -516.9,97.6 -1.9,1.9 -7.7,55.5 -15.3,122.5 -9.6,86.1 -7.7,118.7 9.6,118.7 13.4,0.1 239.3,-40.1 503.5,-87.9 z m 57.4,-409.7 c 271.8,-51.7 495.8,-97.6 497.7,-99.6 11.5,-17.2 67,-310.1 61.3,-317.8 -7.7,-7.7 -1024.2,185.7 -1047.2,199.1 -7.7,3.8 -19.1,47.9 -24.9,97.6 -7.7,51.7 -19.1,120.6 -24.9,155 -7.7,44 -1.9,61.3 15.3,61.3 15.4,0.1 248.9,-42 522.7,-95.6 z m 84.2,-486.2 c 287.2,-55.5 524.5,-105.3 526.5,-109.1 15.3,-23 88.1,-275.7 80.4,-281.4 -5.7,-7.7 -1066.3,204.8 -1077.8,216.3 -15.3,13.4 -74.7,277.6 -65.1,277.6 7.7,-0.1 248.9,-46 536,-103.4 z m 673.9,-578.2 c 17.2,-19.1 116.8,-260.3 109.1,-268 -7.7,-9.6 -1095,224 -1106.5,237.4 -15.3,15.3 -93.8,227.8 -93.8,250.8 0,19.1 1068.2,-197.2 1091.2,-220.2 z m -337,-333.1 c 292.9,-61.3 534.1,-116.8 537.9,-118.7 30.6,-44 162.7,-308.2 158.9,-314 -7.7,-5.7 -1024.2,206.8 -1110.3,233.6 -24.9,7.7 -168.5,266.1 -168.5,304.4 0.1,17.2 53.7,7.7 582,-105.3 z m 913.2,-756.2 c 49.8,-72.7 90,-134 88.1,-137.8 -3.8,-1.9 -268,53.6 -587.7,126.4 l -583.9,130.2 -80.4,122.5 c -45.9,67 -82.3,128.3 -82.3,134 0,5.7 260.4,-45.9 576.2,-116.8 l 576.2,-126.3 z m -312.1,-208.6 c 555.2,-126.3 560.9,-126.3 620.3,-193.3 97.6,-112.9 134,-162.7 116.8,-162.7 -9.6,0 -279.5,59.3 -599.2,134 l -583.9,132.1 -90,101.5 c -97.6,109.1 -111,137.8 -57.4,122.5 17.2,-5.9 285.2,-65.2 593.4,-134.1 z m 373.3,-432.7 591.6,-135.9 149.3,-128.3 c 82.3,-70.8 147.4,-130.2 145.5,-132.1 0,0 -285.2,65.1 -631.7,145.5 l -627.9,147.4 -137.8,128.3 c -74.7,70.8 -122.5,124.4 -107.2,118.7 15.2,-3.8 294.7,-68.9 618.2,-143.6 z m 635.6,-486.2 555.2,-122.5 210.6,-126.4 c 114.9,-68.9 202.9,-126.3 195.3,-126.3 -7.7,0 -281.4,55.5 -608.8,124.4 l -597.3,124.4 -183.8,107.2 c -101.5,57.4 -204.8,122.5 -231.6,141.7 l -47.9,36.4 76.6,-19.1 c 42.1,-9.6 327.3,-72.8 631.7,-139.8 z"
           id="path1478"
           style="display:inline"
           inkscape:label="coin" /><text
           xml:space="preserve"
           style="font-size:10363.1px;display:inline;fill:#000000;stroke-width:194.309"
           x="2736.4548"
           y="3890.158"
           id="text1719"
           transform="scale(1.3850013,-0.72202098)"
           inkscape:label="N"><tspan
             sodipodi:role="line"
             id="tspan1717"
             style="font-style:normal;font-variant:normal;font-weight:normal;font-stretch:normal;font-size:10363.1px;font-family:'Hiragino Sans';-inkscape-font-specification:'Hiragino Sans';stroke-width:194.309"
             x="0"
             y="0">I</tspan></text></g><text
         xml:space="preserve"
         style="font-style:normal;font-variant:normal;font-weight:normal;font-stretch:normal;font-size:1947.84px;font-family:'Hiragino Sans';-inkscape-font-specification:'Hiragino Sans';fill:#000000;stroke-width:146.088"
         x="-1992.1029"
         y="8475.3896"
         id="text2218"
         transform="scale(1.1673459,-0.85664411)"
         inkscape:label="Coinboard"><tspan
           sodipodi:role="line"
           id="tspan2216"
           style="font-size:1947.84px;stroke-width:146.088"
           x="-1992.1029"
           y="8475.3896">COINBOARD</tspan></text></g></g></svg>
